{
  "service": {
    "BMS api": "http://local.bms"
  },
  "endpoints": {
    "bmsAPIEndpoint": "/api",
    "bmsTokenGet": {
      "route": "/api/user/token",
      "method": "post",
      "headers": {
        "Content-Type": "application/json",
        "X-CSRF-Token": "Rg9bBW5yfaj1DDPsb3y0GvCSrpc7EI2pmhucH2CazSQ"
      }
    },
    "bmsLogin": {
      "route": "/api/user/login",
      "method": "post",
      "data": {
        "username": "prieto",
        "password": "BMS-1600022"
      },
      "headers": {
        "Content-Type": "application/json",
        "X-CSRF-Token": "Rg9bBW5yfaj1DDPsb3y0GvCSrpc7EI2pmhucH2CazSQ"
      }
    },
    "bmsStoreGet": {
      "route": "/api/store/164",
      "method": "get",
      "headers": {
        "Content-Type": "application/json",
        "X-CSRF-Token": "Rg9bBW5yfaj1DDPsb3y0GvCSrpc7EI2pmhucH2CazSQ"
      }
    },
    "bmsCashier": {
      "route": "/api/store/164/cashier",
      "method": "post",
      "data": {
        "data": {
          "item": {
            "amount_due": 100,
            "created" : "2016-05-17 06:30:28",
            "created_by": 8,
            "or_number": "ghn",
            "transaction_id": 3,
            "transaction_number": "TN-000003",
            "items": [{
            "id": 1,
            "name": "Roald",
            "price": 7000,
            "product_id": 2,
            "components": [{
              "item_id": 34,
              "name": "Vanilla (Creamy Classic)",
              "quantity": 1,
              "uom": "pcs"
            }]
            }],
              "payment": [{
                "amount": 123,
                "type": "cash"
              }]
          }
        }
      },
      "headers": {
        "Content-Type": "application/json",
        "X-CSRF-Token": "Rg9bBW5yfaj1DDPsb3y0GvCSrpc7EI2pmhucH2CazSQ"
      }
    }
  },
  "options": {
    "minSamples": 1000,
    "runMode": "parallel",
    "maxConcurrentRequests": 20,
    "debug": true,
    "stopOnError": false
  }
}
